%YAML 1.1
%TAG !u! tag:unity3d.com,2011:
--- !u!114 &11400000
MonoBehaviour:
  m_ObjectHideFlags: 0
  m_CorrespondingSourceObject: {fileID: 0}
  m_PrefabInstance: {fileID: 0}
  m_PrefabAsset: {fileID: 0}
  m_GameObject: {fileID: 0}
  m_Enabled: 1
  m_EditorHideFlags: 0
  m_Script: {fileID: 11500000, guid: 5d2e8bd8a4535e24c87be28b93320945, type: 3}
  m_Name: id_2_Crane
  m_EditorClassIdentifier: 
  _front: {fileID: 2100000, guid: d8c04348fc5630d45870d7e401a3ba4c, type: 2}
  _icon: {fileID: 2100000, guid: b12bbf8ae767f744e981a2ca600a87e4, type: 2}
  _name: "\u0416\u0443\u0440\u0430\u0432\u043B\u0438\u043A"
  _cost: 3
  _description: "\u0423\u0440\u043E\u043D \u043F\u043E 1 \u0446\u0435\u043B\u0438"
  _class: 0
  _cardType: 0
  _oneAction: 0
  _oneActionAttack: 0
  _regularAction: 1
  _attack: 2
  _health: 4
  _spellType: 
  id: 2
