{
    "name": "Player_NewInput_Controller",
    "maps": [
        {
            "name": "ActionFite",
            "id": "84df6780-b43a-48c6-ac2b-2a661d5724cf",
            "actions": [
                {
                    "name": "Messagess",
                    "type": "Button",
                    "id": "c43a6142-66e2-4df5-ae98-6f8a04f8cf63",
                    "expectedControlType": "Button",
                    "processors": "",
                    "interactions": ""
                },
                {
                    "name": "Fite",
                    "type": "Button",
                    "id": "ae882185-da0d-4c5f-b3f1-c3aac7aa28d0",
                    "expectedControlType": "Button",
                    "processors": "",
                    "interactions": ""
                },
                {
                    "name": "Jump",
                    "type": "Button",
                    "id": "484983b4-ee3d-4f8c-be86-6f6c6cc1d1c7",
                    "expectedControlType": "Button",
                    "processors": "",
                    "interactions": ""
                }
            ],
            "bindings": [
                {
                    "name": "",
                    "id": "305b8392-84c1-49f7-923d-780213a3aae2",
                    "path": "<Keyboard>/f",
                    "interactions": "",
                    "processors": "",
                    "groups": "",
                    "action": "Messagess",
                    "isComposite": false,
                    "isPartOfComposite": false
                },
                {
                    "name": "",
                    "id": "9ca1bbab-ee9b-4190-875c-c38fe30ed1f5",
                    "path": "<Keyboard>/leftCtrl",
                    "interactions": "",
                    "processors": "",
                    "groups": "",
                    "action": "Messagess",
                    "isComposite": false,
                    "isPartOfComposite": false
                },
                {
                    "name": "",
                    "id": "6748f1fa-589c-47d3-87b6-f4b7e656cc7c",
                    "path": "<Mouse>/leftButton",
                    "interactions": "",
                    "processors": "",
                    "groups": "",
                    "action": "Fite",
                    "isComposite": false,
                    "isPartOfComposite": false
                },
                {
                    "name": "",
                    "id": "1f1f7062-3759-45f2-8175-673bca0633c5",
                    "path": "<Keyboard>/space",
                    "interactions": "",
                    "processors": "",
                    "groups": "",
                    "action": "Jump",
                    "isComposite": false,
                    "isPartOfComposite": false
                }
            ]
        }
    ],
    "controlSchemes": []
}