%YAML 1.1
%TAG !u! tag:unity3d.com,2011:
--- !u!114 &11400000
MonoBehaviour:
  m_ObjectHideFlags: 0
  m_CorrespondingSourceObject: {fileID: 0}
  m_PrefabInstance: {fileID: 0}
  m_PrefabAsset: {fileID: 0}
  m_GameObject: {fileID: 0}
  m_Enabled: 1
  m_EditorHideFlags: 0
  m_Script: {fileID: 11500000, guid: 5d2e8bd8a4535e24c87be28b93320945, type: 3}
  m_Name: id_24_Queen
  m_EditorClassIdentifier: 
  _front: {fileID: 2100000, guid: ae0c97b25ae1b6d4fb250f8e5c7eb10d, type: 2}
  _icon: {fileID: 2100000, guid: 02ccf0279891a3b4aaa31a1d4b2dbb29, type: 2}
  _name: "\u0412\u0438\u0442\u0430"
  _cost: 7
  _description: "\u0423\u0440\u043E\u043D \u043F\u043E 1 \u0446\u0435\u043B\u0438
    + 2 \u0431\u0440\u043E\u043D\u0438 \u043A\u0430\u0436\u0434\u044B\u0439 \u0445\u043E\u0434 "
  _class: 2
  _cardType: 0
  _oneAction: 3
  _oneActionAttack: 2
  _regularAction: 3
  _attack: 2
  _health: 10
  _spellType: 
  id: 24
